DatabaseName,Password,StudentName,Id
Student1,Student_A0UM0M8L_1,"Hannes Den Ouden",1
Student2,Student_ENN1JCIA_2,"Bart Cant",2
Student3,Student_Z4GVJPF4_3,"Storm David",3
Student4,Student_UJBVRO4H_4,"Filip Dimitrov",4
Student10,Student_LQY8LFV9_5,"Nick De Maeyer",5
Student11,Student_6S3MD1DV,"Enis Gunsuren",6
Student12,Student_IF6N6WLE_6,"Olivier Thys",7
Student13,Student_17JVIOVY_7,"Sammy Maerevoet",8
Student14,Student_IMPWPL7U,Widad,9
Student15,Student_COEBU6GB,"Mike Hendriks",10
MLKagency1,Student_6OQKQEA9,NULL,11
Student20,Student_BVUGQK2Q,Dennis,12
Student21,Student_N5PRV3XR,Glenn,13
Student22,Student_UCVXW9LD,Mohamed,14
Student23,Student_ABADXV1Y,Youssef,15
Student24,Student_WHS42DE5,Jan,16
Student25,Student_NJ1EK4PA,Joshua,17
Student26,Student_K5UONE8C,Adem,18
Student27,Student_U857MFYD,Bert,19
Student28,Student_IN607VZ6,Max,20
Docent1,Docent_RC835EE8,Jef,21
Student29,Student$CZ57ASOP,Aaron,22
Student30,Student$2FO69ERT,"Edmund Schols",23
Student31,Student$3GW9VXB3,"Monir El Baz",24
Student32,Student$NGK5M54D,Yannick,25
Student33,Student$0PRKXTVF,"Patrick Faes",26
StemEffect33,h@m#$QYDEO0YW,StemEffect,27
